simple_slave/simple_slave.sim/sim_1/behav/xsim/simulate.log
Time resolution is 1 ps
Time:                    0, Slave Select: 0, Write Enable: 0, Addr: 00, Data In: 00, Data Out: xx, ACK: 0
Time:                   20, Slave Select: 1, Write Enable: 1, Addr: 01, Data In: ab, Data Out: xx, ACK: 0
Time:                   25, Slave Select: 1, Write Enable: 1, Addr: 01, Data In: ab, Data Out: xx, ACK: 1
Time:                   30, Slave Select: 0, Write Enable: 1, Addr: 01, Data In: ab, Data Out: xx, ACK: 1
Time:                   35, Slave Select: 0, Write Enable: 1, Addr: 01, Data In: ab, Data Out: xx, ACK: 0
Time:                   40, Slave Select: 0, Write Enable: 0, Addr: 01, Data In: ab, Data Out: xx, ACK: 0
Time:                   60, Slave Select: 1, Write Enable: 0, Addr: 01, Data In: ab, Data Out: xx, ACK: 0
Time:                   65, Slave Select: 1, Write Enable: 0, Addr: 01, Data In: ab, Data Out: ab, ACK: 1
Time:                   70, Slave Select: 0, Write Enable: 0, Addr: 01, Data In: ab, Data Out: ab, ACK: 1
Time:                   75, Slave Select: 0, Write Enable: 0, Addr: 01, Data In: ab, Data Out: ab, ACK: 0
Time:                   90, Slave Select: 1, Write Enable: 1, Addr: 10, Data In: cd, Data Out: ab, ACK: 0
Time:                   95, Slave Select: 1, Write Enable: 1, Addr: 10, Data In: cd, Data Out: ab, ACK: 1
Time:                  100, Slave Select: 0, Write Enable: 1, Addr: 10, Data In: cd, Data Out: ab, ACK: 1
Time:                  105, Slave Select: 0, Write Enable: 1, Addr: 10, Data In: cd, Data Out: ab, ACK: 0
Time:                  110, Slave Select: 0, Write Enable: 0, Addr: 10, Data In: cd, Data Out: ab, ACK: 0
Time:                  130, Slave Select: 1, Write Enable: 0, Addr: 10, Data In: cd, Data Out: ab, ACK: 0
Time:                  135, Slave Select: 1, Write Enable: 0, Addr: 10, Data In: cd, Data Out: cd, ACK: 1
Time:                  140, Slave Select: 0, Write Enable: 0, Addr: 10, Data In: cd, Data Out: cd, ACK: 1
Time:                  145, Slave Select: 0, Write Enable: 0, Addr: 10, Data In: cd, Data Out: cd, ACK: 0
$finish called at time : 190 ns : File "C:/Users/Hansa Niluka/OneDrive - University of Moratuwa/semster 07/4.EN4021 - Advanced Digital Systems/Bus-Desingn/simple_slave/simple_slave.srcs/sources_1/new/tb_slave.v" Line 91
Time:                    0, Slave Select: 0, Write Enable: 0, Addr: 00, Data In: 00, Data Out: xx, ACK: 0
Time:                   20, Slave Select: 1, Write Enable: 1, Addr: 01, Data In: ab, Data Out: xx, ACK: 0
Time:                   25, Slave Select: 1, Write Enable: 1, Addr: 01, Data In: ab, Data Out: xx, ACK: 1
Time:                   30, Slave Select: 0, Write Enable: 1, Addr: 01, Data In: ab, Data Out: xx, ACK: 1
Time:                   35, Slave Select: 0, Write Enable: 1, Addr: 01, Data In: ab, Data Out: xx, ACK: 0
Time:                   40, Slave Select: 0, Write Enable: 0, Addr: 01, Data In: ab, Data Out: xx, ACK: 0
Time:                   60, Slave Select: 1, Write Enable: 0, Addr: 01, Data In: ab, Data Out: xx, ACK: 0
Time:                   65, Slave Select: 1, Write Enable: 0, Addr: 01, Data In: ab, Data Out: ab, ACK: 1
Time:                   70, Slave Select: 0, Write Enable: 0, Addr: 01, Data In: ab, Data Out: ab, ACK: 1
Time:                   75, Slave Select: 0, Write Enable: 0, Addr: 01, Data In: ab, Data Out: ab, ACK: 0
Time:                   90, Slave Select: 1, Write Enable: 1, Addr: 10, Data In: cd, Data Out: ab, ACK: 0
Time:                   95, Slave Select: 1, Write Enable: 1, Addr: 10, Data In: cd, Data Out: ab, ACK: 1
Time:                  100, Slave Select: 0, Write Enable: 1, Addr: 10, Data In: cd, Data Out: ab, ACK: 1
Time:                  105, Slave Select: 0, Write Enable: 1, Addr: 10, Data In: cd, Data Out: ab, ACK: 0
Time:                  110, Slave Select: 0, Write Enable: 0, Addr: 10, Data In: cd, Data Out: ab, ACK: 0
Time:                  130, Slave Select: 1, Write Enable: 0, Addr: 10, Data In: cd, Data Out: ab, ACK: 0
Time:                  135, Slave Select: 1, Write Enable: 0, Addr: 10, Data In: cd, Data Out: cd, ACK: 1
Time:                  140, Slave Select: 0, Write Enable: 0, Addr: 10, Data In: cd, Data Out: cd, ACK: 1
Time:                  145, Slave Select: 0, Write Enable: 0, Addr: 10, Data In: cd, Data Out: cd, ACK: 0
$finish called at time : 190 ns : File "C:/Users/Hansa Niluka/OneDrive - University of Moratuwa/semster 07/4.EN4021 - Advanced Digital Systems/Bus-Desingn/simple_slave/simple_slave.srcs/sources_1/new/tb_slave.v" Line 91
Time:                    0, Slave Select: 0, Write Enable: 0, Addr: 00, Data In: 00, Data Out: xx, ACK: 0
Time:                   20, Slave Select: 1, Write Enable: 1, Addr: 01, Data In: ab, Data Out: xx, ACK: 0
Time:                   25, Slave Select: 1, Write Enable: 1, Addr: 01, Data In: ab, Data Out: xx, ACK: 1
Time:                   30, Slave Select: 0, Write Enable: 1, Addr: 01, Data In: ab, Data Out: xx, ACK: 1
Time:                   35, Slave Select: 0, Write Enable: 1, Addr: 01, Data In: ab, Data Out: xx, ACK: 0
Time:                   40, Slave Select: 0, Write Enable: 0, Addr: 01, Data In: ab, Data Out: xx, ACK: 0
Time:                   60, Slave Select: 1, Write Enable: 0, Addr: 01, Data In: ab, Data Out: xx, ACK: 0
Time:                   65, Slave Select: 1, Write Enable: 0, Addr: 01, Data In: ab, Data Out: ab, ACK: 1
Time:                   70, Slave Select: 0, Write Enable: 0, Addr: 01, Data In: ab, Data Out: ab, ACK: 1
Time:                   75, Slave Select: 0, Write Enable: 0, Addr: 01, Data In: ab, Data Out: ab, ACK: 0
Time:                   90, Slave Select: 1, Write Enable: 1, Addr: 10, Data In: cd, Data Out: ab, ACK: 0
Time:                   95, Slave Select: 1, Write Enable: 1, Addr: 10, Data In: cd, Data Out: ab, ACK: 1
Time:                  100, Slave Select: 0, Write Enable: 1, Addr: 10, Data In: cd, Data Out: ab, ACK: 1
Time:                  105, Slave Select: 0, Write Enable: 1, Addr: 10, Data In: cd, Data Out: ab, ACK: 0
Time:                  110, Slave Select: 0, Write Enable: 0, Addr: 10, Data In: cd, Data Out: ab, ACK: 0
Time:                  130, Slave Select: 1, Write Enable: 0, Addr: 10, Data In: cd, Data Out: ab, ACK: 0
Time:                  135, Slave Select: 1, Write Enable: 0, Addr: 10, Data In: cd, Data Out: cd, ACK: 1
Time:                  140, Slave Select: 0, Write Enable: 0, Addr: 10, Data In: cd, Data Out: cd, ACK: 1
Time:                  145, Slave Select: 0, Write Enable: 0, Addr: 10, Data In: cd, Data Out: cd, ACK: 0
$finish called at time : 190 ns : File "C:/Users/Hansa Niluka/OneDrive - University of Moratuwa/semster 07/4.EN4021 - Advanced Digital Systems/Bus-Desingn/simple_slave/simple_slave.srcs/sources_1/new/tb_slave.v" Line 91
